<?xml version="1.0" encoding="UTF-8" standalone="no"?>
<!-- Created with Inkscape (http://www.inkscape.org/) -->

<svg
  xmlns:dc="http://purl.org/dc/elements/1.1/"
  xmlns:cc="http://creativecommons.org/ns#"
  xmlns:rdf="http://www.w3.org/1999/02/22-rdf-syntax-ns#"
  xmlns:svg="http://www.w3.org/2000/svg"
  xmlns="http://www.w3.org/2000/svg"
  xmlns:sodipodi="http://sodipodi.sourceforge.net/DTD/sodipodi-0.dtd"
  xmlns:inkscape="http://www.inkscape.org/namespaces/inkscape"
  version="1.1"
  id="svg2"
  xml:space="preserve"
  width="1674.0267"
  height="1034.2267"
  viewBox="0 0 1674.0267 1034.2267"
  sodipodi:docname="Logo.svg"
  inkscape:version="0.92.3 (2405546, 2018-03-11)"><metadata
     id="metadata8"><rdf:RDF><cc:Work
         rdf:about=""><dc:format>image/svg+xml</dc:format><dc:type
  rdf:resource="http://purl.org/dc/dcmitype/StillImage" /><dc:title></dc:title></cc:Work></rdf:RDF></metadata><defs
  id="defs6"><clipPath
       clipPathUnits="userSpaceOnUse"
       id="clipPath70"><path
         d="M 1014.27,1068.51 V 943.262 H 53.8945 V 2112.4 H 296.086 V 1068.51 Z"
         id="path68"
         inkscape:connector-curvature="0" /></clipPath><linearGradient
  x1="0"
  y1="0"
  x2="1"
  y2="0"
  gradientUnits="userSpaceOnUse"
  gradientTransform="matrix(0,-1222,-1222,0,534.082,2258.25)"
  spreadMethod="pad"
  id="linearGradient76"><stop
         style="stop-opacity:1;stop-color:#5887c3"
         offset="0"
         id="stop72" /><stop
  style="stop-opacity:1;stop-color:#13153e"
  offset="1"
  id="stop74" /></linearGradient><clipPath
  clipPathUnits="userSpaceOnUse"
  id="clipPath86"><path
         d="M 1473.54,943.262 H 1231.35 V 2112.4 h 242.19 z"
         id="path84"
         inkscape:connector-curvature="0" /></clipPath><linearGradient
  x1="0"
  y1="0"
  x2="1"
  y2="0"
  gradientUnits="userSpaceOnUse"
  gradientTransform="matrix(0,-1222,-1222,0,1352.45,2258.25)"
  spreadMethod="pad"
  id="linearGradient92"><stop
         style="stop-opacity:1;stop-color:#5887c3"
         offset="0"
         id="stop88" /><stop
  style="stop-opacity:1;stop-color:#13153e"
  offset="1"
  id="stop90" /></linearGradient><clipPath
  clipPathUnits="userSpaceOnUse"
  id="clipPath102"><path
         d="M 2976.74,2112.4 V 943.262 H 2659.4 l -626.32,952.018 h -16.72 V 943.262 H 1774.17 V 2112.4 h 317.34 l 626.32,-952.02 h 16.71 v 952.02 z"
         id="path100"
         inkscape:connector-curvature="0" /></clipPath><linearGradient
  x1="0"
  y1="0"
  x2="1"
  y2="0"
  gradientUnits="userSpaceOnUse"
  gradientTransform="matrix(0,-1222,-1222,0,2375.45,2258.25)"
  spreadMethod="pad"
  id="linearGradient108"><stop
         style="stop-opacity:1;stop-color:#5887c3"
         offset="0"
         id="stop104" /><stop
  style="stop-opacity:1;stop-color:#13153e"
  offset="1"
  id="stop106" /></linearGradient><clipPath
  clipPathUnits="userSpaceOnUse"
  id="clipPath118"><path
         d="m 3878.57,1026.76 c 54.53,0 103.82,7.53 147.82,22.56 43.96,15.03 81.56,38.42 112.74,70.13 31.15,31.75 55.36,72.37 72.64,121.92 17.24,49.55 25.89,108.84 25.89,177.88 v 693.15 h 242.2 v -693.15 c 0,-171.47 -52.36,-299.24 -157.01,-383.31 -104.67,-84.061 -252.79,-126.081 -444.28,-126.081 -192.64,0 -340.99,42.02 -445.11,126.081 -104.12,84.07 -156.17,211.84 -156.17,383.31 v 693.15 h 242.19 v -693.15 c 0,-69.04 8.62,-128.33 25.9,-177.88 17.24,-49.55 41.45,-90.17 72.64,-121.92 31.18,-31.71 68.73,-55.1 112.73,-70.13 43.96,-15.03 93.25,-22.56 147.82,-22.56 z"
         id="path116"
         inkscape:connector-curvature="0" /></clipPath><linearGradient
  x1="0"
  y1="0"
  x2="1"
  y2="0"
  gradientUnits="userSpaceOnUse"
  gradientTransform="matrix(0,-1222,-1222,0,3878.57,2258.25)"
  spreadMethod="pad"
  id="linearGradient124"><stop
         style="stop-opacity:1;stop-color:#5887c3"
         offset="0"
         id="stop120" /><stop
  style="stop-opacity:1;stop-color:#13153e"
  offset="1"
  id="stop122" /></linearGradient><clipPath
  clipPathUnits="userSpaceOnUse"
  id="clipPath134"><path
         d="m 5443.53,1542.86 497.69,-599.598 h -283.9 L 5301.56,1370.82 4947.49,943.262 h -283.95 l 496.05,599.598 -471.01,569.54 h 283.95 l 329.03,-399.2 330.68,399.2 h 283.94 z"
         id="path132"
         inkscape:connector-curvature="0" /></clipPath><linearGradient
  x1="0"
  y1="0"
  x2="1"
  y2="0"
  gradientUnits="userSpaceOnUse"
  gradientTransform="matrix(0,-1222,-1222,0,5302.38,2258.25)"
  spreadMethod="pad"
  id="linearGradient140"><stop
         style="stop-opacity:1;stop-color:#5887c3"
         offset="0"
         id="stop136" /><stop
  style="stop-opacity:1;stop-color:#13153e"
  offset="1"
  id="stop138" /></linearGradient><clipPath
  clipPathUnits="userSpaceOnUse"
  id="clipPath150"><path
         d="m 7018.49,1987.14 v -918.63 h 308.99 c 56.79,0 109.97,8.62 159.51,25.9 49.51,17.24 92.69,44.53 129.42,81.82 36.77,37.29 66,84.93 87.7,142.84 21.7,57.87 32.57,127.47 32.57,208.76 0,81.26 -10.87,150.86 -32.57,208.76 -21.7,57.91 -50.93,105.5 -87.7,142.8 -36.73,37.28 -79.91,64.57 -129.42,81.85 -49.54,17.24 -102.72,25.9 -159.51,25.9 z m 308.99,125.26 c 100.22,0 191.26,-12.52 273.07,-37.6 81.86,-25.03 151.99,-62.06 210.45,-111.05 58.47,-49.02 103.82,-109.97 136.13,-182.9 32.27,-72.94 48.42,-157.26 48.42,-253.02 0,-95.77 -16.15,-180.13 -48.42,-253.03 -32.31,-72.93 -77.66,-133.92 -136.13,-182.9 -58.46,-49.02 -128.59,-86.02 -210.45,-111.06 -81.81,-25.059 -172.85,-37.578 -273.07,-37.578 H 6776.31 V 2112.4 Z"
         id="path148"
         inkscape:connector-curvature="0" /></clipPath><linearGradient
  x1="0"
  y1="0"
  x2="1"
  y2="0"
  gradientUnits="userSpaceOnUse"
  gradientTransform="matrix(0,-1222,-1222,0,7385.93,2258.25)"
  spreadMethod="pad"
  id="linearGradient156"><stop
         style="stop-opacity:1;stop-color:#5887c3"
         offset="0"
         id="stop152" /><stop
  style="stop-opacity:1;stop-color:#13153e"
  offset="1"
  id="stop154" /></linearGradient><clipPath
  clipPathUnits="userSpaceOnUse"
  id="clipPath166"><path
         d="m 8421.47,1987.14 v -384.17 h 609.61 v -125.25 h -609.61 v -409.21 h 776.65 V 943.262 H 8179.28 V 2112.4 h 1018.84 v -125.26 z"
         id="path164"
         inkscape:connector-curvature="0" /></clipPath><linearGradient
  x1="0"
  y1="0"
  x2="1"
  y2="0"
  gradientUnits="userSpaceOnUse"
  gradientTransform="matrix(0,-1222,-1222,0,8688.7,2258.25)"
  spreadMethod="pad"
  id="linearGradient172"><stop
         style="stop-opacity:1;stop-color:#5887c3"
         offset="0"
         id="stop168" /><stop
  style="stop-opacity:1;stop-color:#13153e"
  offset="1"
  id="stop170" /></linearGradient><clipPath
  clipPathUnits="userSpaceOnUse"
  id="clipPath182"><path
         d="M 10325.5,1068.51 V 943.262 H 9365.1 V 2112.4 h 242.19 V 1068.51 Z"
         id="path180"
         inkscape:connector-curvature="0" /></clipPath><linearGradient
  x1="0"
  y1="0"
  x2="1"
  y2="0"
  gradientUnits="userSpaceOnUse"
  gradientTransform="matrix(0,-1222,-1222,0,9845.28,2258.25)"
  spreadMethod="pad"
  id="linearGradient188"><stop
         style="stop-opacity:1;stop-color:#5887c3"
         offset="0"
         id="stop184" /><stop
  style="stop-opacity:1;stop-color:#13153e"
  offset="1"
  id="stop186" /></linearGradient><clipPath
  clipPathUnits="userSpaceOnUse"
  id="clipPath198"><path
         d="m 11319.2,1987.14 h -450.9 V 943.262 h -242.2 V 1987.14 h -451 v 125.26 h 1144.1 z"
         id="path196"
         inkscape:connector-curvature="0" /></clipPath><linearGradient
  x1="0"
  y1="0"
  x2="1"
  y2="0"
  gradientUnits="userSpaceOnUse"
  gradientTransform="matrix(0,-1222,-1222,0,10747.2,2258.25)"
  spreadMethod="pad"
  id="linearGradient204"><stop
         style="stop-opacity:1;stop-color:#5887c3"
         offset="0"
         id="stop200" /><stop
  style="stop-opacity:1;stop-color:#13153e"
  offset="1"
  id="stop202" /></linearGradient><clipPath
  clipPathUnits="userSpaceOnUse"
  id="clipPath214"><path
         d="M 0,0 H 12555 V 7757 H 0 Z"
         id="path212"
         inkscape:connector-curvature="0" /></clipPath><clipPath
  clipPathUnits="userSpaceOnUse"
  id="clipPath220"><path
         d="m 11628.2,1352.46 h 517.8 l -250.5,617.96 h -16.8 z m 450.9,759.94 476.1,-1169.138 h -240.5 l -110.3,283.938 h -634.6 L 11459.5,943.262 H 11219 l 476,1169.138 z"
         id="path218"
         inkscape:connector-curvature="0" /></clipPath><linearGradient
  x1="0"
  y1="0"
  x2="1"
  y2="0"
  gradientUnits="userSpaceOnUse"
  gradientTransform="matrix(0,-1222,-1222,0,11887.1,2258.25)"
  spreadMethod="pad"
  id="linearGradient226"><stop
         style="stop-opacity:1;stop-color:#5887c3"
         offset="0"
         id="stop222" /><stop
  style="stop-opacity:1;stop-color:#13153e"
  offset="1"
  id="stop224" /></linearGradient><clipPath
  clipPathUnits="userSpaceOnUse"
  id="clipPath236"><path
         d="M 5250.7,4599.68 6268.41,7756.69 3296.22,3010.34 5043.16,4120.98 9312.84,2898.86 8877.53,3594.02 Z"
         id="path234"
         inkscape:connector-curvature="0" /></clipPath><linearGradient
  x1="0"
  y1="0"
  x2="1"
  y2="0"
  gradientUnits="userSpaceOnUse"
  gradientTransform="matrix(6016.62,0,0,-6016.62,3296.22,5327.78)"
  spreadMethod="pad"
  id="linearGradient242"><stop
         style="stop-opacity:1;stop-color:#394b9b"
         offset="0"
         id="stop238" /><stop
  style="stop-opacity:1;stop-color:#5887c3"
  offset="1"
  id="stop240" /></linearGradient><clipPath
  clipPathUnits="userSpaceOnUse"
  id="clipPath252"><path
         d="M 3436.37,2674.23 H 8703.13 L 5092.58,3554.55 Z"
         id="path250"
         inkscape:connector-curvature="0" /></clipPath><linearGradient
  x1="0"
  y1="0"
  x2="1"
  y2="0"
  gradientUnits="userSpaceOnUse"
  gradientTransform="matrix(5266.77,0,0,-5266.77,3436.37,3114.39)"
  spreadMethod="pad"
  id="linearGradient258"><stop
         style="stop-opacity:1;stop-color:#394b9b"
         offset="0"
         id="stop254" /><stop
  style="stop-opacity:1;stop-color:#5887c3"
  offset="1"
  id="stop256" /></linearGradient><clipPath
  clipPathUnits="userSpaceOnUse"
  id="clipPath268"><path
         d="M 8592.34,4049.43 6520.76,7357.58 5995.06,4902.9 Z"
         id="path266"
         inkscape:connector-curvature="0" /></clipPath><linearGradient
  x1="0"
  y1="0"
  x2="1"
  y2="0"
  gradientUnits="userSpaceOnUse"
  gradientTransform="matrix(1517.32,1185.46,1185.46,-1517.32,6198.52,4642.49)"
  spreadMethod="pad"
  id="linearGradient274"><stop
         style="stop-opacity:1;stop-color:#394b9b"
         offset="0"
         id="stop270" /><stop
  style="stop-opacity:1;stop-color:#5887c3"
  offset="1"
  id="stop272" /></linearGradient><clipPath
  clipPathUnits="userSpaceOnUse"
  id="clipPath284"><path
         d="M 6268.41,7756.69 5443.56,4714.03 8877.53,3594.02 5250.7,4599.68 Z"
         id="path282"
         inkscape:connector-curvature="0" /></clipPath><linearGradient
  x1="0"
  y1="0"
  x2="1"
  y2="0"
  gradientUnits="userSpaceOnUse"
  gradientTransform="matrix(3626.83,0,0,-3626.83,5250.7,5675.35)"
  spreadMethod="pad"
  id="linearGradient290"><stop
         style="stop-opacity:1;stop-color:#5887c3"
         offset="0"
         id="stop286" /><stop
  style="stop-opacity:1;stop-color:#13153e"
  offset="1"
  id="stop288" /></linearGradient><clipPath
  clipPathUnits="userSpaceOnUse"
  id="clipPath300"><path
         d="M 6520.76,7357.58 5802.42,4857.57 8592.34,4049.43 5995.06,4902.9 Z"
         id="path298"
         inkscape:connector-curvature="0" /></clipPath><linearGradient
  x1="0"
  y1="0"
  x2="1"
  y2="0"
  gradientUnits="userSpaceOnUse"
  gradientTransform="matrix(2789.92,0,0,-2789.92,5802.42,5703.51)"
  spreadMethod="pad"
  id="linearGradient306"><stop
         style="stop-opacity:1;stop-color:#5887c3"
         offset="0"
         id="stop302" /><stop
  style="stop-opacity:1;stop-color:#13153e"
  offset="1"
  id="stop304" /></linearGradient><clipPath
  clipPathUnits="userSpaceOnUse"
  id="clipPath316"><path
         d="M 3436.37,2674.23 5031.82,3701.68 8703.13,2674.23 5092.58,3554.55 Z"
         id="path314"
         inkscape:connector-curvature="0" /></clipPath><linearGradient
  x1="0"
  y1="0"
  x2="1"
  y2="0"
  gradientUnits="userSpaceOnUse"
  gradientTransform="matrix(3270.46,2555.16,2555.16,-3270.46,4434.52,1396.65)"
  spreadMethod="pad"
  id="linearGradient322"><stop
         style="stop-opacity:1;stop-color:#5887c3"
         offset="0"
         id="stop318" /><stop
  style="stop-opacity:1;stop-color:#13153e"
  offset="1"
  id="stop320" /></linearGradient><clipPath
  clipPathUnits="userSpaceOnUse"
  id="clipPath332"><path
         d="M 3296.22,3010.34 5050.71,4003.88 9312.84,2898.86 5043.16,4120.98 Z"
         id="path330"
         inkscape:connector-curvature="0" /></clipPath><linearGradient
  x1="0"
  y1="0"
  x2="1"
  y2="0"
  gradientUnits="userSpaceOnUse"
  gradientTransform="matrix(6016.62,0,0,-6016.62,3296.22,3509.92)"
  spreadMethod="pad"
  id="linearGradient338"><stop
         style="stop-opacity:1;stop-color:#5887c3"
         offset="0"
         id="stop334" /><stop
  style="stop-opacity:1;stop-color:#13153e"
  offset="1"
  id="stop336" /></linearGradient><clipPath
  clipPathUnits="userSpaceOnUse"
  id="clipPath348"><path
         d="M 1655.02,227.059 H 0 V 200.68 h 1655.02 z"
         id="path346"
         inkscape:connector-curvature="0" /></clipPath><linearGradient
  x1="0"
  y1="0"
  x2="1"
  y2="0"
  gradientUnits="userSpaceOnUse"
  gradientTransform="matrix(1655.02,0,0,-1655.02,0,213.87)"
  spreadMethod="pad"
  id="linearGradient354"><stop
         style="stop-opacity:1;stop-color:#5887c3"
         offset="0"
         id="stop350" /><stop
  style="stop-opacity:1;stop-color:#13153e"
  offset="1"
  id="stop352" /></linearGradient><clipPath
  clipPathUnits="userSpaceOnUse"
  id="clipPath364"><path
         d="m 10954,200 h 1601 v 28 h -1601 z"
         id="path362"
         inkscape:connector-curvature="0" /></clipPath><linearGradient
  x1="0"
  y1="0"
  x2="1"
  y2="0"
  gradientUnits="userSpaceOnUse"
  gradientTransform="matrix(1601.13,0,0,-1601.13,10954,213.87)"
  spreadMethod="pad"
  id="linearGradient370"><stop
         style="stop-opacity:1;stop-color:#5887c3"
         offset="0"
         id="stop366" /><stop
  style="stop-opacity:1;stop-color:#13153e"
  offset="1"
  id="stop368" /></linearGradient></defs><sodipodi:namedview
  pagecolor="#ffffff"
  bordercolor="#666666"
  borderopacity="1"
  objecttolerance="10"
  gridtolerance="10"
  guidetolerance="10"
  inkscape:pageopacity="0"
  inkscape:pageshadow="2"
  inkscape:window-width="1920"
  inkscape:window-height="1015"
  id="namedview4"
  showgrid="false"
  inkscape:zoom="0.19235057"
  inkscape:cx="837.01337"
  inkscape:cy="517.11334"
  inkscape:window-x="0"
  inkscape:window-y="0"
  inkscape:window-maximized="1"
  inkscape:current-layer="g10" /><g
  id="g10"
  inkscape:groupmode="layer"
  inkscape:label="ink_ext_XXXXXX"
  transform="matrix(1.3333333,0,0,-1.3333333,0,1034.2267)"><g
       id="g12"
       transform="scale(0.1)"><path
         d="m 1754.6,400.871 h 143.08 V 372.082 H 1792.22 V 223.621 h 85.92 v -27.32 h -85.92 V 33.2188 h 106.45 V 5.37891 H 1754.6 V 400.871"
         style="fill:#231f20;fill-opacity:1;fill-rule:nonzero;stroke:none"
         id="path14"
         inkscape:connector-curvature="0" /><path
  d="m 2072.97,400.871 h 37.09 l 78.15,-343.2499 79.56,343.2499 h 37.12 L 2314.66,5.37891 H 2283.9 L 2276.1,320.332 2200.41,5.37891 h -23.94 L 2101.76,319.84 2093.96,5.37891 h -30.76 l 9.77,395.49209"
  style="fill:#231f20;fill-opacity:1;fill-rule:nonzero;stroke:none"
  id="path16"
  inkscape:connector-curvature="0" /><path
  d="m 2582.23,220.211 c 24.39,0 41.74,5.598 52.01,16.848 10.23,11.23 15.38,30.832 15.38,58.839 0,20.493 -1.97,36.204 -5.87,47.122 -3.9,10.89 -10.59,18.628 -20.01,23.191 -9.44,4.559 -23.12,6.848 -41.02,6.848 h -47.85 V 220.211 Z m -84.48,180.66 h 94.74 c 33.52,0 57.52,-9.121 72.02,-27.351 14.46,-18.231 21.71,-44.098 21.71,-77.622 0,-30.589 -7.55,-55.488 -22.7,-74.699 -15.15,-19.219 -38.66,-28.801 -70.54,-28.801 h -58.11 V 5.37891 h -37.12 V 400.871"
  style="fill:#231f20;fill-opacity:1;fill-rule:nonzero;stroke:none"
  id="path18"
  inkscape:connector-curvature="0" /><path
  d="m 2994.35,51.5195 c 9.09,14.1719 13.64,34.9219 13.64,62.2425 V 292.98 c 0,27.352 -4.46,47.84 -13.41,61.532 -8.95,13.668 -25.65,20.48 -50.05,20.48 -24.75,0 -41.68,-6.742 -50.79,-20.262 -9.12,-13.511 -13.68,-34.101 -13.68,-61.75 V 113.762 c 0,-27.6409 4.56,-48.5003 13.68,-62.4807 9.11,-13.9922 26.04,-21.0118 50.79,-21.0118 24.08,0 40.7,7.0821 49.82,21.25 z m -128.68,-19.289 c -15.45,21.1484 -23.19,51.0898 -23.19,89.8595 v 164.039 c 0,38.402 7.81,67.781 23.45,88.141 15.61,20.339 41.81,30.511 78.6,30.511 36.15,0 62.02,-10.23 77.63,-30.761 15.64,-20.5 23.45,-49.79 23.45,-87.891 V 121.602 c 0,-38.7622 -7.64,-68.6137 -22.96,-89.6215 -15.31,-21 -41.35,-31.492219 -78.12,-31.492219 -37.11,0 -63.38,10.593719 -78.86,31.742219"
  style="fill:#231f20;fill-opacity:1;fill-rule:nonzero;stroke:none"
  id="path20"
  inkscape:connector-curvature="0" /><path
  d="m 3206.73,400.871 h 31.74 l 52.24,-321.2812 59.59,315.4412 h 30.76 l 61.03,-315.9294 48.34,321.7694 h 31.25 L 3457.7,5.37891 h -28.8 L 3365.91,331.551 3303.89,5.37891 h -30.26 l -66.9,395.49209"
  style="fill:#231f20;fill-opacity:1;fill-rule:nonzero;stroke:none"
  id="path22"
  inkscape:connector-curvature="0" /><path
  d="m 3690.11,400.871 h 143.08 V 372.082 H 3727.72 V 223.621 h 85.93 v -27.32 h -85.93 V 33.2188 h 106.45 V 5.37891 H 3690.11 V 400.871"
  style="fill:#231f20;fill-opacity:1;fill-rule:nonzero;stroke:none"
  id="path24"
  inkscape:connector-curvature="0" /><path
  d="m 4089.51,227.059 c 23.77,0 40.37,5.839 49.81,17.582 9.45,11.711 14.17,30.269 14.17,55.66 0,25.699 -4.49,44.258 -13.45,55.64 -8.95,11.418 -25.45,17.118 -49.55,17.118 h -51.26 v -146 z m -87.4,173.812 h 89.36 c 35.49,0 60.71,-8.519 75.69,-25.609 14.96,-17.121 22.47,-42.071 22.47,-74.961 0,-25.063 -4.1,-45.75 -12.23,-62.02 -8.14,-16.261 -22.3,-26.531 -42.48,-30.761 L 4195.47,5.37891 h -36.15 L 4101.25,199.711 h -62.02 V 5.37891 h -37.12 V 400.871"
  style="fill:#231f20;fill-opacity:1;fill-rule:nonzero;stroke:none"
  id="path26"
  inkscape:connector-curvature="0" /><path
  d="m 4370.29,400.871 h 37.09 V 5.37891 h -37.09 V 400.871"
  style="fill:#231f20;fill-opacity:1;fill-rule:nonzero;stroke:none"
  id="path28"
  inkscape:connector-curvature="0" /><path
  d="m 4594.86,400.871 h 26.86 L 4747.68,93.75 v 307.121 h 32.24 V 5.37891 h -26.37 L 4627.1,315.898 V 5.37891 h -32.24 V 400.871"
  style="fill:#231f20;fill-opacity:1;fill-rule:nonzero;stroke:none"
  id="path30"
  inkscape:connector-curvature="0" /><path
  d="m 4979.87,32.4688 c -14.79,21.6406 -22.21,52.832 -22.21,93.5192 v 154.301 c 0,40.992 7.32,72.02 21.98,93.012 14.66,20.98 40.7,31.48 78.11,31.48 34.21,0 58.67,-9.511 73.49,-28.562 14.83,-19.028 22.23,-47.43 22.23,-85.207 V 277.34 h -35.15 v 13.672 c 0,29.617 -4.26,51.027 -12.72,64.207 -8.46,13.179 -24.23,19.773 -47.35,19.773 -17.26,0 -30.51,-3.73 -39.79,-11.211 -9.28,-7.511 -15.47,-17.672 -18.56,-30.519 -3.11,-12.871 -4.65,-29.231 -4.65,-49.071 V 121.602 c 0,-30.9614 4.49,-53.8832 13.44,-68.8715 8.95,-14.9492 25.64,-22.461 50.04,-22.461 23.12,0 39.23,7.5821 48.34,22.7188 9.12,15.1211 13.68,38.3008 13.68,69.5627 v 46.398 h -58.6 v 27.84 h 92.77 V 5.37891 h -23.91 l -4.39,44.92969 c -5.54,-15.9805 -14,-28.3398 -25.42,-37.1289 -11.38,-8.78907 -26.69,-13.1875125 -45.87,-13.1875125 -35.49,0 -60.64,10.8281125 -75.46,32.4766125"
  style="fill:#231f20;fill-opacity:1;fill-rule:nonzero;stroke:none"
  id="path32"
  inkscape:connector-curvature="0" /><path
  d="m 5637.81,220.211 c 24.4,0 41.75,5.598 52.01,16.848 10.24,11.23 15.38,30.832 15.38,58.839 0,20.493 -1.96,36.204 -5.87,47.122 -3.9,10.89 -10.59,18.628 -20,23.191 -9.44,4.559 -23.12,6.848 -41.03,6.848 h -47.84 V 220.211 Z m -84.48,180.66 h 94.75 c 33.51,0 57.52,-9.121 72.01,-27.351 14.46,-18.231 21.71,-44.098 21.71,-77.622 0,-30.589 -7.54,-55.488 -22.69,-74.699 -15.15,-19.219 -38.67,-28.801 -70.54,-28.801 h -58.11 V 5.37891 h -37.13 V 400.871"
  style="fill:#231f20;fill-opacity:1;fill-rule:nonzero;stroke:none"
  id="path34"
  inkscape:connector-curvature="0" /><path
  d="m 5905.87,400.871 h 143.08 V 372.082 H 5943.48 V 223.621 h 85.93 v -27.32 h -85.93 V 33.2188 h 106.45 V 5.37891 H 5905.87 V 400.871"
  style="fill:#231f20;fill-opacity:1;fill-rule:nonzero;stroke:none"
  id="path36"
  inkscape:connector-curvature="0" /><path
  d="m 6361.44,51.5195 c 9.09,14.1719 13.65,34.9219 13.65,62.2425 V 292.98 c 0,27.352 -4.47,47.84 -13.41,61.532 -8.96,13.668 -25.65,20.48 -50.05,20.48 -24.76,0 -41.68,-6.742 -50.8,-20.262 -9.11,-13.511 -13.67,-34.101 -13.67,-61.75 V 113.762 c 0,-27.6409 4.56,-48.5003 13.67,-62.4807 9.12,-13.9922 26.04,-21.0118 50.8,-21.0118 24.07,0 40.7,7.0821 49.81,21.25 z m -128.68,-19.289 c -15.44,21.1484 -23.18,51.0898 -23.18,89.8595 v 164.039 c 0,38.402 7.8,67.781 23.45,88.141 15.61,20.339 41.81,30.511 78.6,30.511 36.14,0 62.01,-10.23 77.63,-30.761 15.64,-20.5 23.44,-49.79 23.44,-87.891 V 121.602 c 0,-38.7622 -7.63,-68.6137 -22.96,-89.6215 -15.31,-21 -41.34,-31.492219 -78.11,-31.492219 -37.12,0 -63.39,10.593719 -78.87,31.742219"
  style="fill:#231f20;fill-opacity:1;fill-rule:nonzero;stroke:none"
  id="path38"
  inkscape:connector-curvature="0" /><path
  d="m 6675.88,220.211 c 24.39,0 41.75,5.598 52.01,16.848 10.22,11.23 15.38,30.832 15.38,58.839 0,20.493 -1.97,36.204 -5.87,47.122 -3.91,10.89 -10.6,18.628 -20.01,23.191 -9.44,4.559 -23.11,6.848 -41.02,6.848 h -47.85 V 220.211 Z m -84.49,180.66 h 94.75 c 33.52,0 57.52,-9.121 72.01,-27.351 14.47,-18.231 21.71,-44.098 21.71,-77.622 0,-30.589 -7.54,-55.488 -22.68,-74.699 -15.16,-19.219 -38.68,-28.801 -70.55,-28.801 h -58.11 V 5.37891 h -37.13 V 400.871"
  style="fill:#231f20;fill-opacity:1;fill-rule:nonzero;stroke:none"
  id="path40"
  inkscape:connector-curvature="0" /><path
  d="m 6944.42,400.871 h 37.13 V 33.2188 h 112.29 V 5.37891 H 6944.42 V 400.871"
  style="fill:#231f20;fill-opacity:1;fill-rule:nonzero;stroke:none"
  id="path42"
  inkscape:connector-curvature="0" /><path
  d="m 7247.63,400.871 h 143.09 V 372.082 H 7285.25 V 223.621 h 85.92 v -27.32 h -85.92 V 33.2188 h 106.46 V 5.37891 H 7247.63 V 400.871"
  style="fill:#231f20;fill-opacity:1;fill-rule:nonzero;stroke:none"
  id="path44"
  inkscape:connector-curvature="0" /><path
  d="m 7758.87,400.871 h 31.74 l 52.24,-321.2812 59.59,315.4412 h 30.76 l 61.03,-315.9294 48.34,321.7694 h 31.25 L 8009.84,5.37891 h -28.8 L 7918.05,331.551 7856.03,5.37891 h -30.26 l -66.9,395.49209"
  style="fill:#231f20;fill-opacity:1;fill-rule:nonzero;stroke:none"
  id="path46"
  inkscape:connector-curvature="0" /><path
  d="m 8243.73,400.871 h 37.09 V 5.37891 h -37.09 V 400.871"
  style="fill:#231f20;fill-opacity:1;fill-rule:nonzero;stroke:none"
  id="path48"
  inkscape:connector-curvature="0" /><path
  d="m 8517.13,372.082 h -74.71 v 28.789 h 184.57 v -28.789 h -72.73 V 5.37891 h -37.13 V 372.082"
  style="fill:#231f20;fill-opacity:1;fill-rule:nonzero;stroke:none"
  id="path50"
  inkscape:connector-curvature="0" /><path
  d="m 8787.16,400.871 h 37.61 V 225.59 h 124.49 v 175.281 h 37.12 V 5.37891 h -37.12 V 197.75 H 8824.77 V 5.37891 h -37.61 V 400.871"
  style="fill:#231f20;fill-opacity:1;fill-rule:nonzero;stroke:none"
  id="path52"
  inkscape:connector-curvature="0" /><path
  d="m 9389.68,400.871 h 37.12 V 33.2188 h 112.29 V 5.37891 H 9389.68 V 400.871"
  style="fill:#231f20;fill-opacity:1;fill-rule:nonzero;stroke:none"
  id="path54"
  inkscape:connector-curvature="0" /><path
  d="m 9694.37,400.871 h 37.09 V 5.37891 h -37.09 V 400.871"
  style="fill:#231f20;fill-opacity:1;fill-rule:nonzero;stroke:none"
  id="path56"
  inkscape:connector-curvature="0" /><path
  d="m 9918.94,400.871 h 26.86 l 126,-307.121 v 307.121 h 32.2 V 5.37891 h -26.4 L 9951.18,315.898 V 5.37891 h -32.24 V 400.871"
  style="fill:#231f20;fill-opacity:1;fill-rule:nonzero;stroke:none"
  id="path58"
  inkscape:connector-curvature="0" /><path
  d="m 10307.6,29.5508 c -14.6,19.3398 -22,47.2773 -22,83.7502 v 287.57 h 36.2 V 112.32 c 0,-26.0778 4.6,-46.238 13.9,-60.5817 9.3,-14.2891 26.3,-21.4688 51,-21.4688 23.8,0 40.6,7.2422 50.3,21.7422 9.8,14.4571 14.6,34.5703 14.6,60.3083 v 288.551 h 35.7 v -287.57 c 0,-35.8401 -7.5,-63.5901 -22.7,-83.2697 -15.1,-19.6993 -41.1,-29.543019 -77.9,-29.543019 -38.1,0 -64.4,9.671919 -79.1,29.062519"
  style="fill:#231f20;fill-opacity:1;fill-rule:nonzero;stroke:none"
  id="path60"
  inkscape:connector-curvature="0" /><path
  d="m 10727,211.422 -84.5,189.449 h 34.7 l 70.8,-157.699 67.9,157.699 h 35.6 l -87.4,-193.84 90.4,-201.65209 h -35.7 L 10743.6,172.371 10677.2,5.37891 h -35.6 L 10727,211.422"
  style="fill:#231f20;fill-opacity:1;fill-rule:nonzero;stroke:none"
  id="path62"
  inkscape:connector-curvature="0" /><g
  id="g64"><g
           id="g66"
           clip-path="url(#clipPath70)"><path
             d="M 1014.27,1068.51 V 943.262 H 53.8945 V 2112.4 H 296.086 V 1068.51 h 718.184"
             style="fill:url(#linearGradient76);fill-opacity:1;fill-rule:nonzero;stroke:none"
             id="path78"
             inkscape:connector-curvature="0" /></g></g><g
  id="g80"><g
           id="g82"
           clip-path="url(#clipPath86)"><path
             d="M 1473.54,943.262 H 1231.35 V 2112.4 h 242.19 V 943.262"
             style="fill:url(#linearGradient92);fill-opacity:1;fill-rule:nonzero;stroke:none"
             id="path94"
             inkscape:connector-curvature="0" /></g></g><g
  id="g96"><g
           id="g98"
           clip-path="url(#clipPath102)"><path
             d="M 2976.74,2112.4 V 943.262 H 2659.4 l -626.32,952.018 h -16.72 V 943.262 H 1774.17 V 2112.4 h 317.34 l 626.32,-952.02 h 16.71 v 952.02 h 242.2"
             style="fill:url(#linearGradient108);fill-opacity:1;fill-rule:nonzero;stroke:none"
             id="path110"
             inkscape:connector-curvature="0" /></g></g><g
  id="g112"><g
           id="g114"
           clip-path="url(#clipPath118)"><path
             d="m 3878.57,1026.76 c 54.53,0 103.82,7.53 147.82,22.56 43.96,15.03 81.56,38.42 112.74,70.13 31.15,31.75 55.36,72.37 72.64,121.92 17.24,49.55 25.89,108.84 25.89,177.88 v 693.15 h 242.2 v -693.15 c 0,-171.47 -52.36,-299.24 -157.01,-383.31 -104.67,-84.061 -252.79,-126.081 -444.28,-126.081 -192.64,0 -340.99,42.02 -445.11,126.081 -104.12,84.07 -156.17,211.84 -156.17,383.31 v 693.15 h 242.19 v -693.15 c 0,-69.04 8.62,-128.33 25.9,-177.88 17.24,-49.55 41.45,-90.17 72.64,-121.92 31.18,-31.71 68.73,-55.1 112.73,-70.13 43.96,-15.03 93.25,-22.56 147.82,-22.56"
             style="fill:url(#linearGradient124);fill-opacity:1;fill-rule:nonzero;stroke:none"
             id="path126"
             inkscape:connector-curvature="0" /></g></g><g
  id="g128"><g
           id="g130"
           clip-path="url(#clipPath134)"><path
             d="m 5443.53,1542.86 497.69,-599.598 h -283.9 L 5301.56,1370.82 4947.49,943.262 h -283.95 l 496.05,599.598 -471.01,569.54 h 283.95 l 329.03,-399.2 330.68,399.2 h 283.94 l -472.65,-569.54"
             style="fill:url(#linearGradient140);fill-opacity:1;fill-rule:nonzero;stroke:none"
             id="path142"
             inkscape:connector-curvature="0" /></g></g><g
  id="g144"><g
           id="g146"
           clip-path="url(#clipPath150)"><path
             d="m 7018.49,1987.14 v -918.63 h 308.99 c 56.79,0 109.97,8.62 159.51,25.9 49.51,17.24 92.69,44.53 129.42,81.82 36.77,37.29 66,84.93 87.7,142.84 21.7,57.87 32.57,127.47 32.57,208.76 0,81.26 -10.87,150.86 -32.57,208.76 -21.7,57.91 -50.93,105.5 -87.7,142.8 -36.73,37.28 -79.91,64.57 -129.42,81.85 -49.54,17.24 -102.72,25.9 -159.51,25.9 z m 308.99,125.26 c 100.22,0 191.26,-12.52 273.07,-37.6 81.86,-25.03 151.99,-62.06 210.45,-111.05 58.47,-49.02 103.82,-109.97 136.13,-182.9 32.27,-72.94 48.42,-157.26 48.42,-253.02 0,-95.77 -16.15,-180.13 -48.42,-253.03 -32.31,-72.93 -77.66,-133.92 -136.13,-182.9 -58.46,-49.02 -128.59,-86.02 -210.45,-111.06 -81.81,-25.059 -172.85,-37.578 -273.07,-37.578 H 6776.31 V 2112.4 h 551.17"
             style="fill:url(#linearGradient156);fill-opacity:1;fill-rule:nonzero;stroke:none"
             id="path158"
             inkscape:connector-curvature="0" /></g></g><g
  id="g160"><g
           id="g162"
           clip-path="url(#clipPath166)"><path
             d="m 8421.47,1987.14 v -384.17 h 609.61 v -125.25 h -609.61 v -409.21 h 776.65 V 943.262 H 8179.28 V 2112.4 h 1018.84 v -125.26 h -776.65"
             style="fill:url(#linearGradient172);fill-opacity:1;fill-rule:nonzero;stroke:none"
             id="path174"
             inkscape:connector-curvature="0" /></g></g><g
  id="g176"><g
           id="g178"
           clip-path="url(#clipPath182)"><path
             d="M 10325.5,1068.51 V 943.262 H 9365.1 V 2112.4 h 242.19 V 1068.51 h 718.21"
             style="fill:url(#linearGradient188);fill-opacity:1;fill-rule:nonzero;stroke:none"
             id="path190"
             inkscape:connector-curvature="0" /></g></g><g
  id="g192"><g
           id="g194"
           clip-path="url(#clipPath198)"><path
             d="m 11319.2,1987.14 h -450.9 V 943.262 h -242.2 V 1987.14 h -451 v 125.26 h 1144.1 v -125.26"
             style="fill:url(#linearGradient204);fill-opacity:1;fill-rule:nonzero;stroke:none"
             id="path206"
             inkscape:connector-curvature="0" /></g></g><g
  id="g208"><g
           id="g210"
           clip-path="url(#clipPath214)"><g
             id="g216"
             clip-path="url(#clipPath220)"><path
               d="m 11219,943 v 3 h 1 v 3 h 1 v 2 h 1 v 3 h 1 v 2 h 1 v 2 h 1 v 3 h 1 v 2 h 1 v 3 h 1 v 2 h 1 v 3 h 1 v 2 h 1 v 3 h 1 v 2 h 1 v 3 h 1 v 2 h 1 v 3 h 1 v 2 h 1 v 2 h 1 v 3 h 1 v 2 h 1 v 3 h 1 v 2 h 1 v 3 h 1 v 2 h 1 v 3 h 1 v 2 h 1 v 3 h 1 v 2 h 1 v 2 h 1 v 3 h 1 v 2 h 1 v 3 h 1 v 2 h 1 v 3 h 1 v 2 h 1 v 3 h 1 v 2 h 1 v 3 h 1 v 2 h 1 v 2 h 1 v 3 h 1 v 2 h 1 v 3 h 1 v 2 h 1 v 3 h 1 v 2 h 1 v 3 h 1 v 2 h 1 v 3 h 1 v 2 h 1 v 2 h 1 v 3 h 1 v 2 h 1 v 3 h 1 v 2 h 1 v 3 h 1 v 2 h 1 v 3 h 1 v 2 h 1 v 3 h 1 v 2 h 1 v 2 h 1 v 3 h 1 v 2 h 1 v 3 h 1 v 2 h 1 v 3 h 1 v 2 h 1 v 3 h 1 v 2 h 1 v 3 h 1 v 2 h 1 v 3 h 1 v 2 h 1 v 2 h 1 v 3 h 1 v 2 h 1 v 3 h 1 v 2 h 1 v 3 h 1 v 2 h 1 v 3 h 1 v 2 h 1 v 3 h 1 v 2 h 1 v 2 h 1 v 3 h 1 v 2 h 1 v 3 h 1 v 2 h 1 v 3 h 1 v 2 h 1 v 3 h 1 v 2 h 1 v 3 h 1 v 2 h 1 v 2 h 1 v 3 h 1 v 2 h 1 v 3 h 1 v 2 h 1 v 3 h 1 v 2 h 1 v 3 h 1 v 2 h 1 v 3 h 1 v 2 h 1 v 2 h 1 v 3 h 1 v 2 h 1 v 3 h 1 v 2 h 1 v 3 h 1 v 2 h 1 v 3 h 1 v 2 h 1 v 3 h 1 v 2 h 1 v 2 h 1 v 3 h 1 v 2 h 1 v 3 h 1 v 2 h 1 v 3 h 1 v 2 h 1 v 3 h 1 v 2 h 1 v 3 h 1 v 2 h 1 v 3 h 1 v 2 h 1 v 2 h 1 v 3 h 1 v 2 h 1 v 3 h 1 v 2 h 1 v 3 h 1 v 2 h 1 v 3 h 1 v 2 h 1 v 3 h 1 v 2 h 1 v 2 h 1 v 3 h 1 v 2 h 1 v 3 h 1 v 2 h 1 v 3 h 1 v 2 h 1 v 3 h 1 v 2 h 1 v 3 h 1 v 2 h 1 v 2 h 1 v 3 h 1 v 2 h 1 v 3 h 1 v 2 h 1 v 3 h 1 v 2 h 1 v 3 h 1 v 2 h 1 v 3 h 1 v 2 h 1 v 2 h 1 v 3 h 1 v 2 h 1 v 3 h 1 v 2 h 1 v 3 h 1 v 2 h 1 v 3 h 1 v 2 h 1 v 3 h 1 v 2 h 1 v 2 h 1 v 3 h 1 v 2 h 1 v 3 h 1 v 2 h 1 v 3 h 1 v 2 h 1 v 3 h 1 v 2 h 1 v 3 h 1 v 2 h 1 v 3 h 1 v 2 h 1 v 2 h 1 v 3 h 1 v 2 h 1 v 3 h 1 v 2 h 1 v 3 h 1 v 2 h 1 v 3 h 1 v 2 h 1 v 3 h 1 v 2 h 1 v 2 h 1 v 3 h 1 v 2 h 1 v 3 h 1 v 2 h 1 v 3 h 1 v 2 h 1 v 3 h 1 v 2 h 1 v 3 h 1 v 2 h 1 v 2 h 1 v 3 h 1 v 2 h 1 v 3 h 1 v 2 h 1 v 3 h 1 v 2 h 1 v 3 h 1 v 2 h 1 v 3 h 1 v 2 h 1 v 2 h 1 v 3 h 1 v 2 h 1 v 3 h 1 v 2 h 1 v 3 h 1 v 2 h 1 v 3 h 1 v 2 h 1 v 3 h 1 v 2 h 1 v 2 h 1 v 3 h 1 v 2 h 1 v 3 h 1 v 2 h 1 v 3 h 1 v 2 h 1 v 3 h 1 v 2 h 1 v 3 h 1 v 2 h 1 v 3 h 1 v 2 h 1 v 2 h 1 v 3 h 1 v 2 h 1 v 3 h 1 v 2 h 1 v 3 h 1 v 2 h 1 v 3 h 1 v 2 h 1 v 3 h 1 v 2 h 1 v 2 h 1 v 3 h 1 v 2 h 1 v 3 h 1 v 2 h 1 v 3 h 1 v 2 h 1 v 3 h 1 v 2 h 1 v 3 h 1 v 2 h 1 v 2 h 1 v 3 h 1 v 2 h 1 v 3 h 1 v 2 h 1 v 3 h 1 v 2 h 1 v 3 h 1 v 2 h 1 v 3 h 1 v 2 h 1 v 2 h 1 v 3 h 1 v 2 h 1 v 3 h 1 v 2 h 1 v 3 h 1 v 2 h 1 v 3 h 1 v 2 h 1 v 3 h 1 v 2 h 1 v 2 h 1 v 3 h 1 v 2 h 1 v 3 h 1 v 2 h 1 v 3 h 1 v 2 h 1 v 3 h 1 v 2 h 1 v 3 h 1 v 2 h 1 v 3 h 1 v 2 h 1 v 2 h 1 v 3 h 1 v 2 h 1 v 3 h 1 v 2 h 1 v 3 h 1 v 2 h 1 v 3 h 1 v 2 h 1 v 3 h 1 v 2 h 1 v 2 h 1 v 3 h 1 v 2 h 1 v 3 h 1 v 2 h 1 v 3 h 1 v 2 h 1 v 3 h 1 v 2 h 1 v 3 h 1 v 2 h 1 v 2 h 1 v 3 h 1 v 2 h 1 v 3 h 1 v 2 h 1 v 3 h 1 v 2 h 1 v 3 h 1 v 2 h 1 v 3 h 1 v 2 h 1 v 2 h 1 v 3 h 1 v 2 h 1 v 3 h 1 v 2 h 1 v 3 h 1 v 2 h 1 v 3 h 1 v 2 h 1 v 3 h 1 v 2 h 1 v 2 h 1 v 3 h 1 v 2 h 1 v 3 h 1 v 2 h 1 v 3 h 1 v 2 h 1 v 3 h 1 v 2 h 1 v 3 h 1 v 2 h 1 v 3 h 1 v 2 h 1 v 2 h 1 v 3 h 1 v 2 h 1 v 3 h 1 v 2 h 1 v 3 h 1 v 2 h 1 v 3 h 1 v 2 h 1 v 3 h 1 v 2 h 1 v 2 h 1 v 3 h 1 v 2 h 1 v 3 h 1 v 2 h 1 v 3 h 1 v 2 h 1 v 3 h 1 v 2 h 1 v 3 h 1 v 2 h 1 v 2 h 1 v 3 h 1 v 2 h 1 v 3 h 1 v 2 h 1 v 3 h 1 v 2 h 1 v 3 h 1 v 2 h 1 v 3 h 1 v 2 h 1 v 2 h 1 v 3 h 1 v 2 h 1 v 3 h 1 v 2 h 1 v 3 h 1 v 2 h 1 v 3 h 1 v 2 h 1 v 3 h 1 v 2 h 1 v 3 h 1 v 2 h 1 v 2 h 1 v 3 h 1 v 2 h 1 v 3 h 1 v 2 h 1 v 3 h 1 v 2 h 1 v 3 h 1 v 2 h 1 v 3 h 1 v 2 h 1 v 2 h 1 v 3 h 1 v 2 h 1 v 3 h 1 v 2 h 1 v 3 h 1 v 2 h 1 v 3 h 1 v 2 h 1 v 3 h 1 v 2 h 1 v 2 h 1 v 3 h 1 v 2 h 1 v 3 h 1 v 2 h 1 v 3 h 1 v 2 h 1 v 3 h 1 v 2 h 1 v 3 h 1 v 2 h 1 v 2 h 1 v 3 h 1 v 2 h 1 v 3 h 1 v 2 h 1 v 3 h 1 v 2 h 1 v 3 h 1 v 2 h 1 v 3 h 1 v 2 h 1 v 2 h 1 v 3 h 1 v 2 h 1 v 3 h 1 v 2 h 1 v 3 h 1 v 2 h 1 v 3 h 1 v 2 h 1 v 3 h 1 v 2 h 1 v 3 h 1 v 2 h 1 v 2 h 1 v 3 h 1 v 2 h 1 v 3 h 1 v 2 h 1 v 3 h 1 v 2 h 1 v 3 h 1 v 2 h 1 v 3 h 1 v 2 h 1 v 2 h 1 v 3 h 386 v -2 h 1 v -3 h 1 v -2 h 1 v -3 h 1 v -2 h 1 v -3 h 1 v -2 h 1 v -2 h 1 v -3 h 1 v -2 h 1 v -3 h 1 v -2 h 1 v -3 h 1 v -2 h 1 v -3 h 1 v -2 h 1 v -3 h 1 v -2 h 1 v -3 h 1 v -2 h 1 v -2 h 1 v -3 h 1 v -2 h 1 v -3 h 1 v -2 h 1 v -3 h 1 v -2 h 1 v -3 h 1 v -
2 h 1 v -3 h 1 v -2 h 1 v -2 h 1 v -3 h 1 v -2 h 1 v -3 h 1 v -2 h 1 v -3 h 1 v -2 h 1 v -3 h 1 v -2 h 1 v -3 h 1 v -2 h 1 v -2 h 1 v -3 h 1 v -2 h 1 v -3 h 1 v -2 h 1 v -3 h 1 v -2 h 1 v -3 h 1 v -2 h 1 v -3 h 1 v -2 h 1 v -2 h 1 v -3 h 1 v -2 h 1 v -3 h 1 v -2 h 1 v -3 h 1 v -2 h 1 v -3 h 1 v -2 h 1 v -3 h 1 v -2 h 1 v -2 h 1 v -3 h 1 v -2 h 1 v -3 h 1 v -2 h 1 v -3 h 1 v -2 h 1 v -3 h 1 v -2 h 1 v -3 h 1 v -2 h 1 v -2 h 1 v -3 h 1 v -2 h 1 v -3 h 1 v -2 h 1 v -3 h 1 v -2 h 1 v -3 h 1 v -2 h 1 v -3 h 1 v -2 h 1 v -2 h 1 v -3 h 1 v -2 h 1 v -3 h 1 v -2 h 1 v -3 h 1 v -2 h 1 v -3 h 1 v -2 h 1 v -3 h 1 v -2 h 1 v -3 h 1 v -2 h 1 v -2 h 1 v -3 h 1 v -2 h 1 v -3 h 1 v -2 h 1 v -3 h 1 v -2 h 1 v -3 h 1 v -2 h 1 v -3 h 1 v -2 h 1 v -2 h 1 v -3 h 1 v -2 h 1 v -3 h 1 v -2 h 1 v -3 h 1 v -2 h 1 v -3 h 1 v -2 h 1 v -3 h 1 v -2 h 1 v -2 h 1 v -3 h 1 v -2 h 1 v -3 h 1 v -2 h 1 v -3 h 1 v -2 h 1 v -3 h 1 v -2 h 1 v -3 h 1 v -2 h 1 v -2 h 1 v -3 h 1 v -2 h 1 v -3 h 1 v -2 h 1 v -3 h 1 v -2 h 1 v -3 h 1 v -2 h 1 v -3 h 1 v -2 h 1 v -2 h 1 v -3 h 1 v -2 h 1 v -3 h 1 v -2 h 1 v -3 h 1 v -2 h 1 v -3 h 1 v -2 h 1 v -3 h 1 v -2 h 1 v -2 h 1 v -3 h 1 v -2 h 1 v -3 h 1 v -2 h 1 v -3 h 1 v -2 h 1 v -3 h 1 v -2 h 1 v -3 h 1 v -2 h 1 v -2 h 1 v -3 h 1 v -2 h 1 v -3 h 1 v -2 h 1 v -3 h 1 v -2 h 1 v -3 h 1 v -2 h 1 v -3 h 1 v -2 h 1 v -3 h 1 v -2 h 1 v -2 h 1 v -3 h 1 v -2 h 1 v -3 h 1 v -2 h 1 v -3 h 1 v -2 h 1 v -3 h 1 v -2 h 1 v -3 h 1 v -2 h 1 v -2 h 1 v -3 h 1 v -2 h 1 v -3 h 1 v -2 h 1 v -3 h 1 v -2 h 1 v -3 h 1 v -2 h 1 v -3 h 1 v -2 h 1 v -2 h 1 v -3 h 1 v -2 h 1 v -3 h 1 v -2 h 1 v -3 h 1 v -2 h 1 v -3 h 1 v -2 h 1 v -3 h 1 v -2 h 1 v -2 h 1 v -3 h 1 v -2 h 1 v -3 h 1 v -2 h 1 v -3 h 1 v -2 h 1 v -3 h 1 v -2 h 1 v -3 h 1 v -2 h 1 v -2 h 1 v -3 h 1 v -2 h 1 v -3 h 1 v -2 h 1 v -3 h 1 v -2 h 1 v -3 h 1 v -2 h 1 v -3 h 1 v -2 h 1 v -2 h 1 v -3 h 1 v -2 h 1 v -3 h 1 v -2 h 1 v -3 h 1 v -2 h 1 v -3 h 1 v -2 h 1 v -3 h 1 v -2 h 1 v -2 h 1 v -3 h 1 v -2 h 1 v -3 h 1 v -2 h 1 v -3 h 1 v -2 h 1 v -3 h 1 v -2 h 1 v -3 h 1 v -2 h 1 v -3 h 1 v -2 h 1 v -2 h 1 v -3 h 1 v -2 h 1 v -3 h 1 v -2 h 1 v -3 h 1 v -2 h 1 v -3 h 1 v -2 h 1 v -3 h 1 v -2 h 1 v -2 h 1 v -3 h 1 v -2 h 1 v -3 h 1 v -2 h 1 v -3 h 1 v -2 h 1 v -3 h 1 v -2 h 1 v -3 h 1 v -2 h 1 v -2 h 1 v -3 h 1 v -2 h 1 v -3 h 1 v -2 h 1 v -3 h 1 v -2 h 1 v -3 h 1 v -2 h 1 v -3 h 1 v -2 h 1 v -2 h 1 v -3 h 1 v -2 h 1 v -3 h 1 v -2 h 1 v -3 h 1 v -2 h 1 v -3 h 1 v -2 h 1 v -3 h 1 v -2 h 1 v -2 h 1 v -3 h 1 v -2 h 1 v -3 h 1 v -2 h 1 v -3 h 1 v -2 h 1 v -3 h 1 v -2 h 1 v -3 h 1 v -2 h 1 v -2 h 1 v -3 h 1 v -2 h 1 v -3 h 1 v -2 h 1 v -3 h 1 v -2 h 1 v -3 h 1 v -2 h 1 v -3 h 1 v -2 h 1 v -2 h 1 v -3 h 1 v -2 h 1 v -3 h 1 v -2 h 1 v -3 h 1 v -2 h 1 v -3 h 1 v -2 h 1 v -3 h 1 v -2 h 1 v -3 h 1 v -2 h 1 v -2 h 1 v -3 h 1 v -2 h 1 v -3 h 1 v -2 h 1 v -3 h 1 v -2 h 1 v -3 h 1 v -2 h 1 v -3 h 1 v -2 h 1 v -2 h 1 v -3 h 1 v -2 h 1 v -3 h 1 v -2 h 1 v -3 h 1 v -2 h 1 v -3 h 1 v -2 h 1 v -3 h 1 v -2 h 1 v -2 h 1 v -3 h 1 v -2 h 1 v -3 h 1 v -2 h 1 v -3 h 1 v -2 h 1 v -3 h 1 v -2 h 1 v -3 h 1 v -2 h 1 v -2 h 1 v -3 h 1 v -2 h 1 v -3 h 1 v -2 h 1 v -3 h 1 v -2 h 1 v -3 h 1 v -2 h 1 v -3 h 1 v -2 h 1 v -2 h 1 v -3 h 1 v -2 h 1 v -3 h 1 v -2 h 1 v -3 h 1 v -2 h 1 v -3 h 1 v -2 h 1 v -3 h 1 v -2 h 1 v -2 h 1 v -3 h 1 v -2 h 1 v -3 h 1 v -2 h 1 v -3 h 1 v -2 h 1 v -3 h 1 v -2 h 1 v -3 h 1 v -2 h 1 v -2 h 1 v -3 h 1 v -2 h 1 v -3 h 1 v -2 h 1 v -3 h 1 v -2 h 1 v -3 h 1 v -2 h 1 v -3 h 1 v -2 h 1 v -2 h 1 v -3 h 1 v -2 h 1 v -3 h 1 v -2 h 1 v -3 h 1 v -2 h 1 v -3 h 1 v -2 h 1 v -3 h 1 v -2 h 1 v -3 h 1 v -2 h 1 v -2 h 1 v -3 h 1 v -2 h 1 v -3 h 1 v -2 h 1 v -3 h 1 v -2 h 1 v -3 h 1 v -2 h 1 v -3 h 1 v -2 h 1 v -2 h 1 v -3 h 1 v -2 h 1 v -3 h 1 v -2 h 1 v -3 h 1 v -2 h 1 v -3 h 1 v -2 h 1 v -3 h 1 v -2 h 1 v -2 h 1 v -3 h 1 v -2 h 1 v -3 h 1 v -2 h 1 v -3 h 1 v -2 h 1 v -3 h 1 v -2 h 1 v -3 h 1 v -2 h 1 v -2 h 1 v -3 h 1 v -2 h 1 v -3 h 1 v -2 h 1 v -3 h 1 v -2 h 1 v -3 h 1 v -2 h 1 v -3 h 1 v -2 h 1 v -2 h 1 v -3 h 1 v -2 h 1 v -3 h 1 v -2 h 1 v -4 h -241 v 2 h -1 v 2 h -1 v 3 h -1 v 2 h -1 v 3 h -1 v 2 h -1 v 3 h -1
v 3 h -1 v 2 h -1 v 3 h -1 v 2 h -1 v 3 h -1 v 2 h -1 v 3 h -1 v 3 h -1 v 2 h -1 v 3 h -1 v 2 h -1 v 3 h -1 v 2 h -1 v 3 h -1 v 3 h -1 v 2 h -1 v 3 h -1 v 2 h -1 v 3 h -1 v 3 h -1 v 2 h -1 v 3 h -1 v 2 h -1 v 3 h -1 v 2 h -1 v 3 h -1 v 3 h -1 v 2 h -1 v 3 h -1 v 2 h -1 v 3 h -1 v 2 h -1 v 3 h -1 v 3 h -1 v 2 h -1 v 3 h -1 v 2 h -1 v 3 h -1 v 2 h -1 v 3 h -1 v 3 h -1 v 2 h -1 v 3 h -1 v 2 h -1 v 3 h -1 v 2 h -1 v 3 h -1 v 3 h -1 v 2 h -1 v 3 h -1 v 2 h -1 v 3 h -1 v 2 h -1 v 3 h -1 v 3 h -1 v 2 h -1 v 3 h -1 v 2 h -1 v 3 h -1 v 2 h -1 v 3 h -1 v 3 h -1 v 2 h -1 v 3 h -1 v 2 h -1 v 3 h -1 v 2 h -1 v 3 h -1 v 3 h -1 v 2 h -1 v 3 h -1 v 2 h -1 v 3 h -1 v 3 h -1 v 2 h -1 v 3 h -1 v 2 h -1 v 3 h -1 v 2 h -1 v 3 h -1 v 3 h -1 v 2 h -1 v 3 h -1 v 2 h -1 v 3 h -1 v 2 h -1 v 3 h -1 v 3 h -1 v 2 h -1 v 3 h -1 v 2 h -1 v 3 h -1 v 2 h -1 v 3 h -1 v 3 h -1 v 2 h -1 v 3 h -1 v 2 h -1 v 3 h -1 v 2 h -1 v 3 h -1 v 3 h -1 v 2 h -1 v 2 h -634 v -2 h -1 v -3 h -1 v -3 h -1 v -2 h -1 v -3 h -1 v -2 h -1 v -3 h -1 v -2 h -1 v -3 h -1 v -3 h -1 v -2 h -1 v -3 h -1 v -2 h -1 v -3 h -1 v -2 h -1 v -3 h -1 v -3 h -1 v -2 h -1 v -3 h -1 v -2 h -1 v -3 h -1 v -2 h -1 v -3 h -1 v -3 h -1 v -2 h -1 v -3 h -1 v -2 h -1 v -3 h -1 v -2 h -1 v -3 h -1 v -3 h -1 v -2 h -1 v -3 h -1 v -2 h -1 v -3 h -1 v -2 h -1 v -3 h -1 v -3 h -1 v -2 h -1 v -3 h -1 v -2 h -1 v -3 h -1 v -2 h -1 v -3 h -1 v -3 h -1 v -2 h -1 v -3 h -1 v -2 h -1 v -3 h -1 v -2 h -1 v -3 h -1 v -3 h -1 v -2 h -1 v -3 h -1 v -2 h -1 v -3 h -1 v -3 h -1 v -2 h -1 v -3 h -1 v -2 h -1 v -3 h -1 v -2 h -1 v -3 h -1 v -3 h -1 v -2 h -1 v -3 h -1 v -2 h -1 v -3 h -1 v -2 h -1 v -3 h -1 v -3 h -1 v -2 h -1 v -3 h -1 v -2 h -1 v -3 h -1 v -2 h -1 v -3 h -1 v -3 h -1 v -2 h -1 v -3 h -1 v -2 h -1 v -3 h -1 v -2 h -1 v -3 h -1 v -3 h -1 v -2 h -1 v -3 h -1 v -2 h -1 v -3 h -1 v -2 h -1 v -3 h -1 v -3 h -1 v -2 h -1 v -3 h -1 v -2 h -1 v -3 h -1 v -2 h -1 v -3 h -1 v -3 h -1 v -2 h -1 v -3 h -1 v -2 h -1 v -3 h -1 v -2 h -1 v -3 h -1 v -3 h -1 v -2 h -1 v -3 h -1 v -2 h -1 v -3 h -1 v -1 z m 410,411 v -1 h 516 v 1 h -1 v 3 h -1 v 2 h -1 v 3 h -1 v 2 h -1 v 3 h -1 v 2 h -1 v 3 h -1 v 2 h -1 v 3 h -1 v 2 h -1 v 3 h -1 v 2 h -1 v 3 h -1 v 2 h -1 v 2 h -1 v 3 h -1 v 2 h -1 v 3 h -1 v 2 h -1 v 3 h -1 v 2 h -1 v 3 h -1 v 2 h -1 v 3 h -1 v 2 h -1 v 3 h -1 v 2 h -1 v 3 h -1 v 2 h -1 v 2 h -1 v 3 h -1 v 2 h -1 v 3 h -1 v 2 h -1 v 3 h -1 v 2 h -1 v 3 h -1 v 2 h -1 v 3 h -1 v 2 h -1 v 3 h -1 v 2 h -1 v 3 h -1 v 2 h -1 v 2 h -1 v 3 h -1 v 2 h -1 v 3 h -1 v 2 h -1 v 3 h -1 v 2 h -1 v 3 h -1 v 2 h -1 v 3 h -1 v 2 h -1 v 3 h -1 v 2 h -1 v 3 h -1 v 2 h -1 v 2 h -1 v 3 h -1 v 2 h -1 v 3 h -1 v 2 h -1 v 3 h -1 v 2 h -1 v 3 h -1 v 2 h -1 v 3 h -1 v 2 h -1 v 3 h -1 v 2 h -1 v 3 h -1 v 2 h -1 v 2 h -1 v 3 h -1 v 2 h -1 v 3 h -1 v 2 h -1 v 3 h -1 v 2 h -1 v 3 h -1 v 2 h -1 v 3 h -1 v 2 h -1 v 3 h -1 v 2 h -1 v 3 h -1 v 2 h -1 v 2 h -1 v 3 h -1 v 2 h -1 v 3 h -1 v 2 h -1 v 3 h -1 v 2 h -1 v 3 h -1 v 2 h -1 v 3 h -1 v 2 h -1 v 3 h -1 v 2 h -1 v 3 h -1 v 2 h -1 v 2 h -1 v 3 h -1 v 2 h -1 v 3 h -1 v 2 h -1 v 3 h -1 v 2 h -1 v 3 h -1 v 2 h -1 v 3 h -1 v 2 h -1 v 3 h -1 v 2 h -1 v 3 h -1 v 2 h -1 v 2 h -1 v 3 h -1 v 2 h -1 v 3 h -1 v 2 h -1 v 3 h -1 v 2 h -1 v 3 h -1 v 2 h -1 v 3 h -1 v 2 h -1 v 3 h -1 v 2 h -1 v 3 h -1 v 2 h -1 v 2 h -1 v 3 h -1 v 2 h -1 v 3 h -1 v 2 h -1 v 3 h -1 v 2 h -1 v 3 h -1 v 2 h -1 v 3 h -1 v 2 h -1 v 3 h -1 v 2 h -1 v 3 h -1 v 2 h -1 v 2 h -1 v 3 h -1 v 2 h -1 v 3 h -1 v 2 h -1 v 3 h -1 v 2 h -1 v 3 h -1 v 2 h -1 v 3 h -1 v 2 h -1 v 3 h -1 v 2 h -1 v 3 h -1 v 2 h -1 v 2 h -1 v 3 h -1 v 2 h -1 v 3 h -1 v 2 h -1 v 3 h -1 v 2 h -1 v 3 h -1 v 2 h -1 v 3 h -1 v 2 h -1 v 3 h -1 v 2 h -1 v 3 h -1 v 2 h -1 v 2 h -1 v 3 h -1 v 2 h -1 v 3 h -1 v 2 h -1 v 3 h -1 v 2 h -1 v 3 h -1 v 2 h -1 v 3 h -1 v 2 h -1 v 3 h -1 v 2 h -1 v 3 h -1 v 2 h -1 v 2 h -1 v 3 h -1 v 2 h -1 v 3 h -1 v 2 h -1 v 3 h -1 v 2 h -1 v 3 h -1 v 2 h -1 v 3 h -1 v 2 h -1 v 3 h -1 v 2 h -1 v 3 h -1 v 2 h -1 v 2 h -1 v 3 h -1 v 2 h -1 v 3 h -1 v 2 h -1 v 3 h -1 v 2 h -1 v 3 h -1 v 2 h -1 v 3 h -1 v 2 h -1 v 3 h -1 v 2 h -1 v 3 h -1 v 2 h -1 v 2
h -1 v 3 h -1 v 2 h -1 v 3 h -1 v 2 h -1 v 3 h -1 v 2 h -1 v 3 h -1 v 2 h -1 v 3 h -1 v 2 h -1 v 3 h -1 v 2 h -1 v 3 h -1 v 2 h -1 v 3 h -1 v 2 h -1 v 2 h -1 v 3 h -1 v 2 h -1 v 3 h -1 v 2 h -1 v 3 h -1 v 2 h -1 v 3 h -1 v 1 h -16 v -2 h -1 v -2 h -1 v -3 h -1 v -2 h -1 v -3 h -1 v -2 h -1 v -3 h -1 v -2 h -1 v -3 h -1 v -2 h -1 v -2 h -1 v -3 h -1 v -2 h -1 v -3 h -1 v -2 h -1 v -3 h -1 v -2 h -1 v -3 h -1 v -2 h -1 v -3 h -1 v -2 h -1 v -3 h -1 v -2 h -1 v -3 h -1 v -2 h -1 v -2 h -1 v -3 h -1 v -2 h -1 v -3 h -1 v -2 h -1 v -3 h -1 v -2 h -1 v -3 h -1 v -2 h -1 v -3 h -1 v -2 h -1 v -3 h -1 v -2 h -1 v -3 h -1 v -2 h -1 v -2 h -1 v -3 h -1 v -2 h -1 v -3 h -1 v -2 h -1 v -3 h -1 v -2 h -1 v -3 h -1 v -2 h -1 v -3 h -1 v -2 h -1 v -3 h -1 v -2 h -1 v -3 h -1 v -2 h -1 v -2 h -1 v -3 h -1 v -2 h -1 v -3 h -1 v -2 h -1 v -3 h -1 v -2 h -1 v -3 h -1 v -2 h -1 v -3 h -1 v -2 h -1 v -3 h -1 v -2 h -1 v -3 h -1 v -2 h -1 v -2 h -1 v -3 h -1 v -2 h -1 v -3 h -1 v -2 h -1 v -3 h -1 v -2 h -1 v -3 h -1 v -2 h -1 v -3 h -1 v -2 h -1 v -3 h -1 v -2 h -1 v -3 h -1 v -2 h -1 v -2 h -1 v -3 h -1 v -2 h -1 v -3 h -1 v -2 h -1 v -3 h -1 v -2 h -1 v -3 h -1 v -2 h -1 v -3 h -1 v -2 h -1 v -3 h -1 v -2 h -1 v -3 h -1 v -2 h -1 v -2 h -1 v -3 h -1 v -2 h -1 v -3 h -1 v -2 h -1 v -3 h -1 v -2 h -1 v -3 h -1 v -2 h -1 v -3 h -1 v -2 h -1 v -3 h -1 v -2 h -1 v -3 h -1 v -2 h -1 v -2 h -1 v -3 h -1 v -2 h -1 v -3 h -1 v -2 h -1 v -3 h -1 v -2 h -1 v -3 h -1 v -2 h -1 v -3 h -1 v -2 h -1 v -3 h -1 v -2 h -1 v -3 h -1 v -2 h -1 v -2 h -1 v -3 h -1 v -2 h -1 v -3 h -1 v -2 h -1 v -3 h -1 v -2 h -1 v -3 h -1 v -2 h -1 v -3 h -1 v -2 h -1 v -3 h -1 v -2 h -1 v -3 h -1 v -2 h -1 v -3 h -1 v -2 h -1 v -2 h -1 v -3 h -1 v -2 h -1 v -3 h -1 v -2 h -1 v -3 h -1 v -2 h -1 v -3 h -1 v -2 h -1 v -3 h -1 v -2 h -1 v -3 h -1 v -2 h -1 v -3 h -1 v -2 h -1 v -2 h -1 v -3 h -1 v -2 h -1 v -3 h -1 v -2 h -1 v -3 h -1 v -2 h -1 v -3 h -1 v -2 h -1 v -3 h -1 v -2 h -1 v -3 h -1 v -2 h -1 v -3 h -1 v -2 h -1 v -2 h -1 v -3 h -1 v -2 h -1 v -3 h -1 v -2 h -1 v -3 h -1 v -2 h -1 v -3 h -1 v -2 h -1 v -3 h -1 v -2 h -1 v -3 h -1 v -2 h -1 v -3 h -1 v -2 h -1 v -2 h -1 v -3 h -1 v -2 h -1 v -3 h -1 v -2 h -1 v -3 h -1 v -2 h -1 v -3 h -1 v -2 h -1 v -3 h -1 v -2 h -1 v -3 h -1 v -2 h -1 v -3 h -1 v -2 h -1 v -2 h -1 v -3 h -1 v -2 h -1 v -3 h -1 v -2 h -1 v -3 h -1 v -2 h -1 v -3 h -1 v -2 h -1 v -3 h -1 v -2 h -1 v -3 h -1 v -2 h -1 v -3 h -1 v -2 h -1 v -2 h -1 v -3 h -1 v -2 h -1 v -3 h -1 v -2 h -1 v -3 h -1 v -2 h -1 v -3 h -1 v -2 h -1 v -3 h -1 v -2 h -1 v -3 h -1 v -2 h -1 v -3 h -1 v -2 h -1 v -2 h -1 v -3 h -1 v -2 h -1 v -3 h -1 v -2 h -1 v -3 h -1 v -2 h -1 v -3 h -1 v -2 h -1 v -3 h -1 v -2 h -1 v -3 h -1 v -2"
               style="fill:url(#linearGradient226);fill-opacity:1;fill-rule:nonzero;stroke:none"
               id="path228"
               inkscape:connector-curvature="0" /></g></g></g><g
  id="g230"><g
           id="g232"
           clip-path="url(#clipPath236)"><path
             d="M 5250.7,4599.68 6268.41,7756.69 3296.22,3010.34 5043.16,4120.98 9312.84,2898.86 8877.53,3594.02 5250.7,4599.68"
             style="fill:url(#linearGradient242);fill-opacity:1;fill-rule:nonzero;stroke:none"
             id="path244"
             inkscape:connector-curvature="0" /></g></g><g
  id="g246"><g
           id="g248"
           clip-path="url(#clipPath252)"><path
             d="M 3436.37,2674.23 H 8703.13 L 5092.58,3554.55 Z"
             style="fill:url(#linearGradient258);fill-opacity:1;fill-rule:nonzero;stroke:none"
             id="path260"
             inkscape:connector-curvature="0" /></g></g><g
  id="g262"><g
           id="g264"
           clip-path="url(#clipPath268)"><path
             d="M 8592.34,4049.43 6520.76,7357.58 5995.06,4902.9 Z"
             style="fill:url(#linearGradient274);fill-opacity:1;fill-rule:nonzero;stroke:none"
             id="path276"
             inkscape:connector-curvature="0" /></g></g><g
  id="g278"><g
           id="g280"
           clip-path="url(#clipPath284)"><path
             d="M 6268.41,7756.69 5443.56,4714.03 8877.53,3594.02 5250.7,4599.68 6268.41,7756.69"
             style="fill:url(#linearGradient290);fill-opacity:1;fill-rule:nonzero;stroke:none"
             id="path292"
             inkscape:connector-curvature="0" /></g></g><g
  id="g294"><g
           id="g296"
           clip-path="url(#clipPath300)"><path
             d="M 6520.76,7357.58 5802.42,4857.57 8592.34,4049.43 5995.06,4902.9 6520.76,7357.58"
             style="fill:url(#linearGradient306);fill-opacity:1;fill-rule:nonzero;stroke:none"
             id="path308"
             inkscape:connector-curvature="0" /></g></g><g
  id="g310"><g
           id="g312"
           clip-path="url(#clipPath316)"><path
             d="M 3436.37,2674.23 5031.82,3701.68 8703.13,2674.23 5092.58,3554.55 3436.37,2674.23"
             style="fill:url(#linearGradient322);fill-opacity:1;fill-rule:nonzero;stroke:none"
             id="path324"
             inkscape:connector-curvature="0" /></g></g><g
  id="g326"><g
           id="g328"
           clip-path="url(#clipPath332)"><path
             d="M 3296.22,3010.34 5050.71,4003.88 9312.84,2898.86 5043.16,4120.98 3296.22,3010.34"
             style="fill:url(#linearGradient338);fill-opacity:1;fill-rule:nonzero;stroke:none"
             id="path340"
             inkscape:connector-curvature="0" /></g></g><g
  id="g342"><g
           id="g344"
           clip-path="url(#clipPath348)"><path
             d="M 1655.02,227.059 H 0 V 200.68 h 1655.02 v 26.379"
             style="fill:url(#linearGradient354);fill-opacity:1;fill-rule:nonzero;stroke:none"
             id="path356"
             inkscape:connector-curvature="0" /></g></g><g
  id="g358"><g
           id="g360"
           clip-path="url(#clipPath364)"><path
             d="m 10954,200 h 1601 v 28 h -1601 z"
             style="fill:url(#linearGradient370);fill-opacity:1;fill-rule:nonzero;stroke:none"
             id="path372"
             inkscape:connector-curvature="0" /></g></g></g></g></svg>